{
  "project_info": {
    "project_number": "35999894056",
    "project_id": "cammootion"
  },
  "client": [
    {
      "client_info": {
        "mobilesdk_app_id": "1:35999894056:android:47f326319cce5d87",
        "android_client_info": {
          "package_name": "com.minus.cammootion"
        }
      },
      "oauth_client": [
        {
          "client_id": "35999894056-jun7nfeougsuhb2jg99okksimd1bleoa.apps.googleusercontent.com",
          "client_type": 1,
          "android_info": {
            "package_name": "com.minus.cammootion",
            "certificate_hash": "2D97978E60261E9C5766AD2785D91727856E1157"
          }
        },
        {
          "client_id": "35999894056-2f8khi0bcrnkv75cc4ra8vfvmmnqghu4.apps.googleusercontent.com",
          "client_type": 3
        }
      ],
      "api_key": [
        {
          "current_key": "AIzaSyDHUa831-o4jyB8gKiOHiUfinlux4gSi0M"
        }
      ],
      "services": {
        "analytics_service": {
          "status": 1
        },
        "appinvite_service": {
          "status": 1,
          "other_platform_oauth_client": []
        },
        "ads_service": {
          "status": 1
        }
      }
    }
  ],
  "configuration_version": "1"
}