{
  "project_info": {
    "project_number": "782616602829",
    "firebase_url": "https://motionlistener.firebaseio.com",
    "project_id": "motionlistener",
    "storage_bucket": "motionlistener.appspot.com"
  },
  "client": [
    {
      "client_info": {
        "mobilesdk_app_id": "1:782616602829:android:bcac151baa4ecd6e",
        "android_client_info": {
          "package_name": "com.minus.motionlistener"
        }
      },
      "oauth_client": [
        {
          "client_id": "782616602829-4mjmb8gf39j3grk7rkdsjvsrlkt6plma.apps.googleusercontent.com",
          "client_type": 1,
          "android_info": {
            "package_name": "com.minus.motionlistener",
            "certificate_hash": "55B38EAFFF5E60B989EA2EA90ED1EC5F7BCFBE42"
          }
        },
        {
          "client_id": "782616602829-g8cjkbed2rksn8mkbn4bhuccloeei56f.apps.googleusercontent.com",
          "client_type": 3
        }
      ],
      "api_key": [
        {
          "current_key": "AIzaSyDXPJj-AH2XpwTIx9ZeX8pndmM_EnvOw1Q"
        }
      ],
      "services": {
        "analytics_service": {
          "status": 1
        },
        "appinvite_service": {
          "status": 2,
          "other_platform_oauth_client": [
            {
              "client_id": "782616602829-g8cjkbed2rksn8mkbn4bhuccloeei56f.apps.googleusercontent.com",
              "client_type": 3
            }
          ]
        },
        "ads_service": {
          "status": 2
        }
      }
    }
  ],
  "configuration_version": "1"
}
